-- Merging decision tree log ---
manifest
ADDED from /home/brst-pc80/Apps/Cibs-pro/app/src/main/AndroidManifest.xml:2:1-222:12
	package
		ADDED from /home/brst-pc80/Apps/Cibs-pro/app/src/main/AndroidManifest.xml:3:5-50
		INJECTED from /home/brst-pc80/Apps/Cibs-pro/app/src/main/AndroidManifest.xml
		INJECTED from /home/brst-pc80/Apps/Cibs-pro/app/src/main/AndroidManifest.xml
	android:versionName
		ADDED from /home/brst-pc80/Apps/Cibs-pro/app/src/main/AndroidManifest.xml:5:5-32
		INJECTED from /home/brst-pc80/Apps/Cibs-pro/app/src/main/AndroidManifest.xml
		INJECTED from /home/brst-pc80/Apps/Cibs-pro/app/src/main/AndroidManifest.xml
	android:versionCode
		ADDED from /home/brst-pc80/Apps/Cibs-pro/app/src/main/AndroidManifest.xml:4:5-28
		INJECTED from /home/brst-pc80/Apps/Cibs-pro/app/src/main/AndroidManifest.xml
		INJECTED from /home/brst-pc80/Apps/Cibs-pro/app/src/main/AndroidManifest.xml
	xmlns:android
		ADDED from /home/brst-pc80/Apps/Cibs-pro/app/src/main/AndroidManifest.xml:2:11-69
uses-sdk
ADDED from /home/brst-pc80/Apps/Cibs-pro/app/src/main/AndroidManifest.xml:7:5-9:41
MERGED from [com.android.support:multidex:1.0.1] /home/brst-pc80/Apps/Cibs-pro/app/build/intermediates/exploded-aar/com.android.support/multidex/1.0.1/AndroidManifest.xml:18:5-42
MERGED from [com.google.android.gms:play-services-maps:9.2.0] /home/brst-pc80/Apps/Cibs-pro/app/build/intermediates/exploded-aar/com.google.android.gms/play-services-maps/9.2.0/AndroidManifest.xml:26:5-42
MERGED from [com.google.android.gms:play-services-base:9.2.0] /home/brst-pc80/Apps/Cibs-pro/app/build/intermediates/exploded-aar/com.google.android.gms/play-services-base/9.2.0/AndroidManifest.xml:18:5-42
MERGED from [com.google.android.gms:play-services-basement:9.2.0] /home/brst-pc80/Apps/Cibs-pro/app/build/intermediates/exploded-aar/com.google.android.gms/play-services-basement/9.2.0/AndroidManifest.xml:18:5-42
MERGED from [com.android.support:support-v4:25.0.1] /home/brst-pc80/Apps/Cibs-pro/app/build/intermediates/exploded-aar/com.android.support/support-v4/25.0.1/AndroidManifest.xml:21:5-23:54
MERGED from [com.android.support:support-compat:25.0.1] /home/brst-pc80/Apps/Cibs-pro/app/build/intermediates/exploded-aar/com.android.support/support-compat/25.0.1/AndroidManifest.xml:21:5-23:58
MERGED from [com.android.support:support-media-compat:25.0.1] /home/brst-pc80/Apps/Cibs-pro/app/build/intermediates/exploded-aar/com.android.support/support-media-compat/25.0.1/AndroidManifest.xml:21:5-23:63
MERGED from [com.android.support:support-core-utils:25.0.1] /home/brst-pc80/Apps/Cibs-pro/app/build/intermediates/exploded-aar/com.android.support/support-core-utils/25.0.1/AndroidManifest.xml:21:5-23:61
MERGED from [com.android.support:support-core-ui:25.0.1] /home/brst-pc80/Apps/Cibs-pro/app/build/intermediates/exploded-aar/com.android.support/support-core-ui/25.0.1/AndroidManifest.xml:21:5-23:58
MERGED from [com.android.support:support-fragment:25.0.1] /home/brst-pc80/Apps/Cibs-pro/app/build/intermediates/exploded-aar/com.android.support/support-fragment/25.0.1/AndroidManifest.xml:21:5-23:60
MERGED from [com.google.android.gms:play-services-tasks:9.2.0] /home/brst-pc80/Apps/Cibs-pro/app/build/intermediates/exploded-aar/com.google.android.gms/play-services-tasks/9.2.0/AndroidManifest.xml:4:5-43
MERGED from [com.google.firebase:firebase-messaging:9.2.0] /home/brst-pc80/Apps/Cibs-pro/app/build/intermediates/exploded-aar/com.google.firebase/firebase-messaging/9.2.0/AndroidManifest.xml:18:5-42
MERGED from [com.google.firebase:firebase-iid:9.2.0] /home/brst-pc80/Apps/Cibs-pro/app/build/intermediates/exploded-aar/com.google.firebase/firebase-iid/9.2.0/AndroidManifest.xml:18:5-42
MERGED from [com.google.firebase:firebase-common:9.2.0] /home/brst-pc80/Apps/Cibs-pro/app/build/intermediates/exploded-aar/com.google.firebase/firebase-common/9.2.0/AndroidManifest.xml:4:5-43
MERGED from [com.android.support:design:22.2.0] /home/brst-pc80/Apps/Cibs-pro/app/build/intermediates/exploded-aar/com.android.support/design/22.2.0/AndroidManifest.xml:20:5-43
MERGED from [com.android.support:appcompat-v7:25.0.1] /home/brst-pc80/Apps/Cibs-pro/app/build/intermediates/exploded-aar/com.android.support/appcompat-v7/25.0.1/AndroidManifest.xml:21:5-23:78
MERGED from [com.android.support:support-vector-drawable:25.0.1] /home/brst-pc80/Apps/Cibs-pro/app/build/intermediates/exploded-aar/com.android.support/support-vector-drawable/25.0.1/AndroidManifest.xml:21:5-43
MERGED from [com.android.support:animated-vector-drawable:25.0.1] /home/brst-pc80/Apps/Cibs-pro/app/build/intermediates/exploded-aar/com.android.support/animated-vector-drawable/25.0.1/AndroidManifest.xml:20:5-44
MERGED from [com.android.support:cardview-v7:25.3.0] /home/brst-pc80/Apps/Cibs-pro/app/build/intermediates/exploded-aar/com.android.support/cardview-v7/25.3.0/AndroidManifest.xml:20:5-43
MERGED from [com.intuit.sdp:sdp-android:1.0.4] /home/brst-pc80/Apps/Cibs-pro/app/build/intermediates/exploded-aar/com.intuit.sdp/sdp-android/1.0.4/AndroidManifest.xml:7:5-9:41
MERGED from [com.google.firebase:firebase-core:9.2.0] /home/brst-pc80/Apps/Cibs-pro/app/build/intermediates/exploded-aar/com.google.firebase/firebase-core/9.2.0/AndroidManifest.xml:4:5-42
MERGED from [com.google.firebase:firebase-analytics:9.2.0] /home/brst-pc80/Apps/Cibs-pro/app/build/intermediates/exploded-aar/com.google.firebase/firebase-analytics/9.2.0/AndroidManifest.xml:18:5-42
MERGED from [com.google.firebase:firebase-analytics-impl:9.2.0] /home/brst-pc80/Apps/Cibs-pro/app/build/intermediates/exploded-aar/com.google.firebase/firebase-analytics-impl/9.2.0/AndroidManifest.xml:18:5-42
	tools:overrideLibrary
		ADDED from [com.android.support:support-v4:25.0.1] /home/brst-pc80/Apps/Cibs-pro/app/build/intermediates/exploded-aar/com.android.support/support-v4/25.0.1/AndroidManifest.xml:23:9-51
	android:targetSdkVersion
		ADDED from /home/brst-pc80/Apps/Cibs-pro/app/src/main/AndroidManifest.xml:9:9-38
		INJECTED from /home/brst-pc80/Apps/Cibs-pro/app/src/main/AndroidManifest.xml
		INJECTED from /home/brst-pc80/Apps/Cibs-pro/app/src/main/AndroidManifest.xml
	android:minSdkVersion
		ADDED from /home/brst-pc80/Apps/Cibs-pro/app/src/main/AndroidManifest.xml:8:9-35
		INJECTED from /home/brst-pc80/Apps/Cibs-pro/app/src/main/AndroidManifest.xml
		INJECTED from /home/brst-pc80/Apps/Cibs-pro/app/src/main/AndroidManifest.xml
uses-permission#android.permission.SEND_SMS
ADDED from /home/brst-pc80/Apps/Cibs-pro/app/src/main/AndroidManifest.xml:10:5-66
	android:name
		ADDED from /home/brst-pc80/Apps/Cibs-pro/app/src/main/AndroidManifest.xml:10:22-64
uses-permission#android.permission.RECORD_AUDIO
ADDED from /home/brst-pc80/Apps/Cibs-pro/app/src/main/AndroidManifest.xml:11:6-72
	android:name
		ADDED from /home/brst-pc80/Apps/Cibs-pro/app/src/main/AndroidManifest.xml:11:23-69
uses-permission#android.permission.WAKE_LOCK
ADDED from /home/brst-pc80/Apps/Cibs-pro/app/src/main/AndroidManifest.xml:12:5-68
MERGED from [com.google.firebase:firebase-iid:9.2.0] /home/brst-pc80/Apps/Cibs-pro/app/build/intermediates/exploded-aar/com.google.firebase/firebase-iid/9.2.0/AndroidManifest.xml:22:5-68
MERGED from [com.google.firebase:firebase-analytics:9.2.0] /home/brst-pc80/Apps/Cibs-pro/app/build/intermediates/exploded-aar/com.google.firebase/firebase-analytics/9.2.0/AndroidManifest.xml:24:5-67
MERGED from [com.google.firebase:firebase-analytics-impl:9.2.0] /home/brst-pc80/Apps/Cibs-pro/app/build/intermediates/exploded-aar/com.google.firebase/firebase-analytics-impl/9.2.0/AndroidManifest.xml:24:5-67
	android:name
		ADDED from /home/brst-pc80/Apps/Cibs-pro/app/src/main/AndroidManifest.xml:12:22-65
uses-permission#android.permission.CALL_PHONE
ADDED from /home/brst-pc80/Apps/Cibs-pro/app/src/main/AndroidManifest.xml:13:5-69
	android:name
		ADDED from /home/brst-pc80/Apps/Cibs-pro/app/src/main/AndroidManifest.xml:13:22-66
uses-permission#android.permission.BLUETOOTH
ADDED from /home/brst-pc80/Apps/Cibs-pro/app/src/main/AndroidManifest.xml:14:5-68
	android:name
		ADDED from /home/brst-pc80/Apps/Cibs-pro/app/src/main/AndroidManifest.xml:14:22-65
uses-permission#android.permission.READ_PROFILE
ADDED from /home/brst-pc80/Apps/Cibs-pro/app/src/main/AndroidManifest.xml:15:5-71
	android:name
		ADDED from /home/brst-pc80/Apps/Cibs-pro/app/src/main/AndroidManifest.xml:15:22-68
uses-permission#android.permission.READ_CONTACTS
ADDED from /home/brst-pc80/Apps/Cibs-pro/app/src/main/AndroidManifest.xml:16:5-72
	android:name
		ADDED from /home/brst-pc80/Apps/Cibs-pro/app/src/main/AndroidManifest.xml:16:22-69
uses-permission#android.permission.INTERNET
ADDED from /home/brst-pc80/Apps/Cibs-pro/app/src/main/AndroidManifest.xml:17:5-67
MERGED from [com.google.android.gms:play-services-maps:9.2.0] /home/brst-pc80/Apps/Cibs-pro/app/build/intermediates/exploded-aar/com.google.android.gms/play-services-maps/9.2.0/AndroidManifest.xml:21:5-66
MERGED from [com.google.firebase:firebase-iid:9.2.0] /home/brst-pc80/Apps/Cibs-pro/app/build/intermediates/exploded-aar/com.google.firebase/firebase-iid/9.2.0/AndroidManifest.xml:21:5-67
MERGED from [com.google.firebase:firebase-analytics:9.2.0] /home/brst-pc80/Apps/Cibs-pro/app/build/intermediates/exploded-aar/com.google.firebase/firebase-analytics/9.2.0/AndroidManifest.xml:21:5-67
MERGED from [com.google.firebase:firebase-analytics-impl:9.2.0] /home/brst-pc80/Apps/Cibs-pro/app/build/intermediates/exploded-aar/com.google.firebase/firebase-analytics-impl/9.2.0/AndroidManifest.xml:21:5-67
	android:name
		ADDED from /home/brst-pc80/Apps/Cibs-pro/app/src/main/AndroidManifest.xml:17:22-64
uses-permission#android.permission.ACCESS_NETWORK_STATE
ADDED from /home/brst-pc80/Apps/Cibs-pro/app/src/main/AndroidManifest.xml:18:5-79
MERGED from [com.google.android.gms:play-services-maps:9.2.0] /home/brst-pc80/Apps/Cibs-pro/app/build/intermediates/exploded-aar/com.google.android.gms/play-services-maps/9.2.0/AndroidManifest.xml:20:5-78
MERGED from [com.google.firebase:firebase-iid:9.2.0] /home/brst-pc80/Apps/Cibs-pro/app/build/intermediates/exploded-aar/com.google.firebase/firebase-iid/9.2.0/AndroidManifest.xml:20:5-79
MERGED from [com.google.firebase:firebase-analytics:9.2.0] /home/brst-pc80/Apps/Cibs-pro/app/build/intermediates/exploded-aar/com.google.firebase/firebase-analytics/9.2.0/AndroidManifest.xml:22:5-79
MERGED from [com.google.firebase:firebase-analytics-impl:9.2.0] /home/brst-pc80/Apps/Cibs-pro/app/build/intermediates/exploded-aar/com.google.firebase/firebase-analytics-impl/9.2.0/AndroidManifest.xml:22:5-79
	android:name
		ADDED from /home/brst-pc80/Apps/Cibs-pro/app/src/main/AndroidManifest.xml:18:22-76
uses-permission#android.permission.WRITE_EXTERNAL_STORAGE
ADDED from /home/brst-pc80/Apps/Cibs-pro/app/src/main/AndroidManifest.xml:19:5-81
	android:name
		ADDED from /home/brst-pc80/Apps/Cibs-pro/app/src/main/AndroidManifest.xml:19:22-78
uses-permission#android.permission.ACCESS_COARSE_LOCATION
ADDED from /home/brst-pc80/Apps/Cibs-pro/app/src/main/AndroidManifest.xml:20:5-81
	android:name
		ADDED from /home/brst-pc80/Apps/Cibs-pro/app/src/main/AndroidManifest.xml:20:22-78
uses-permission#android.permission.ACCESS_FINE_LOCATION
ADDED from /home/brst-pc80/Apps/Cibs-pro/app/src/main/AndroidManifest.xml:21:5-79
	android:name
		ADDED from /home/brst-pc80/Apps/Cibs-pro/app/src/main/AndroidManifest.xml:21:22-76
uses-permission#com.google.android.providers.gsf.permission.READ_GSERVICES
ADDED from /home/brst-pc80/Apps/Cibs-pro/app/src/main/AndroidManifest.xml:22:5-98
	android:name
		ADDED from /home/brst-pc80/Apps/Cibs-pro/app/src/main/AndroidManifest.xml:22:22-95
uses-permission#android.permission.VIBRATE
ADDED from /home/brst-pc80/Apps/Cibs-pro/app/src/main/AndroidManifest.xml:24:5-66
	android:name
		ADDED from /home/brst-pc80/Apps/Cibs-pro/app/src/main/AndroidManifest.xml:24:22-63
uses-feature#android.hardware.camera
ADDED from /home/brst-pc80/Apps/Cibs-pro/app/src/main/AndroidManifest.xml:25:5-60
	android:name
		ADDED from /home/brst-pc80/Apps/Cibs-pro/app/src/main/AndroidManifest.xml:25:19-57
uses-permission#com.android.vending.BILLING
ADDED from /home/brst-pc80/Apps/Cibs-pro/app/src/main/AndroidManifest.xml:26:5-67
	android:name
		ADDED from /home/brst-pc80/Apps/Cibs-pro/app/src/main/AndroidManifest.xml:26:22-64
uses-permission#android.permission.RECEIVE_BOOT_COMPLETED
ADDED from /home/brst-pc80/Apps/Cibs-pro/app/src/main/AndroidManifest.xml:27:5-81
	android:name
		ADDED from /home/brst-pc80/Apps/Cibs-pro/app/src/main/AndroidManifest.xml:27:22-78
uses-permission#android.permission.DISABLE_KEYGUARD
ADDED from /home/brst-pc80/Apps/Cibs-pro/app/src/main/AndroidManifest.xml:29:5-75
	android:name
		ADDED from /home/brst-pc80/Apps/Cibs-pro/app/src/main/AndroidManifest.xml:29:22-72
uses-permission#android.permission.READ_PHONE_STATE
ADDED from /home/brst-pc80/Apps/Cibs-pro/app/src/main/AndroidManifest.xml:32:5-75
	android:name
		ADDED from /home/brst-pc80/Apps/Cibs-pro/app/src/main/AndroidManifest.xml:32:22-72
uses-permission#android.permission.CAMERA
ADDED from /home/brst-pc80/Apps/Cibs-pro/app/src/main/AndroidManifest.xml:34:5-65
	android:name
		ADDED from /home/brst-pc80/Apps/Cibs-pro/app/src/main/AndroidManifest.xml:34:22-62
uses-permission#android.permission.SYSTEM_ALERT_WINDOW
ADDED from /home/brst-pc80/Apps/Cibs-pro/app/src/main/AndroidManifest.xml:35:5-78
	android:name
		ADDED from /home/brst-pc80/Apps/Cibs-pro/app/src/main/AndroidManifest.xml:35:22-75
uses-permission#android.permission.GET_ACCOUNTS
ADDED from /home/brst-pc80/Apps/Cibs-pro/app/src/main/AndroidManifest.xml:36:5-71
	android:name
		ADDED from /home/brst-pc80/Apps/Cibs-pro/app/src/main/AndroidManifest.xml:36:22-68
permission#com.visionarytechsolutions.cibsPro.permission.C2D_MESSAGE
ADDED from /home/brst-pc80/Apps/Cibs-pro/app/src/main/AndroidManifest.xml:39:5-41:47
MERGED from [com.google.firebase:firebase-iid:9.2.0] /home/brst-pc80/Apps/Cibs-pro/app/build/intermediates/exploded-aar/com.google.firebase/firebase-iid/9.2.0/AndroidManifest.xml:25:5-26:47
	android:protectionLevel
		ADDED from /home/brst-pc80/Apps/Cibs-pro/app/src/main/AndroidManifest.xml:41:9-44
	android:name
		ADDED from /home/brst-pc80/Apps/Cibs-pro/app/src/main/AndroidManifest.xml:40:9-81
uses-permission#com.visionarytechsolutions.cibsPro.permission.C2D_MESSAGE
ADDED from /home/brst-pc80/Apps/Cibs-pro/app/src/main/AndroidManifest.xml:43:5-97
MERGED from [com.google.firebase:firebase-iid:9.2.0] /home/brst-pc80/Apps/Cibs-pro/app/build/intermediates/exploded-aar/com.google.firebase/firebase-iid/9.2.0/AndroidManifest.xml:28:5-79
	android:name
		ADDED from /home/brst-pc80/Apps/Cibs-pro/app/src/main/AndroidManifest.xml:43:22-94
uses-permission#com.google.android.c2dm.permission.RECEIVE
ADDED from /home/brst-pc80/Apps/Cibs-pro/app/src/main/AndroidManifest.xml:44:5-82
MERGED from [com.google.firebase:firebase-iid:9.2.0] /home/brst-pc80/Apps/Cibs-pro/app/build/intermediates/exploded-aar/com.google.firebase/firebase-iid/9.2.0/AndroidManifest.xml:23:5-82
	android:name
		ADDED from /home/brst-pc80/Apps/Cibs-pro/app/src/main/AndroidManifest.xml:44:22-79
application
ADDED from /home/brst-pc80/Apps/Cibs-pro/app/src/main/AndroidManifest.xml:46:5-220:19
MERGED from [com.google.android.gms:play-services-maps:9.2.0] /home/brst-pc80/Apps/Cibs-pro/app/build/intermediates/exploded-aar/com.google.android.gms/play-services-maps/9.2.0/AndroidManifest.xml:27:5-20
MERGED from [com.google.android.gms:play-services-base:9.2.0] /home/brst-pc80/Apps/Cibs-pro/app/build/intermediates/exploded-aar/com.google.android.gms/play-services-base/9.2.0/AndroidManifest.xml:19:5-23:19
MERGED from [com.google.android.gms:play-services-basement:9.2.0] /home/brst-pc80/Apps/Cibs-pro/app/build/intermediates/exploded-aar/com.google.android.gms/play-services-basement/9.2.0/AndroidManifest.xml:20:5-24:19
MERGED from [com.android.support:support-v4:25.0.1] /home/brst-pc80/Apps/Cibs-pro/app/build/intermediates/exploded-aar/com.android.support/support-v4/25.0.1/AndroidManifest.xml:25:5-20
MERGED from [com.android.support:support-compat:25.0.1] /home/brst-pc80/Apps/Cibs-pro/app/build/intermediates/exploded-aar/com.android.support/support-compat/25.0.1/AndroidManifest.xml:25:5-20
MERGED from [com.android.support:support-media-compat:25.0.1] /home/brst-pc80/Apps/Cibs-pro/app/build/intermediates/exploded-aar/com.android.support/support-media-compat/25.0.1/AndroidManifest.xml:25:5-20
MERGED from [com.android.support:support-core-utils:25.0.1] /home/brst-pc80/Apps/Cibs-pro/app/build/intermediates/exploded-aar/com.android.support/support-core-utils/25.0.1/AndroidManifest.xml:25:5-20
MERGED from [com.android.support:support-core-ui:25.0.1] /home/brst-pc80/Apps/Cibs-pro/app/build/intermediates/exploded-aar/com.android.support/support-core-ui/25.0.1/AndroidManifest.xml:25:5-20
MERGED from [com.android.support:support-fragment:25.0.1] /home/brst-pc80/Apps/Cibs-pro/app/build/intermediates/exploded-aar/com.android.support/support-fragment/25.0.1/AndroidManifest.xml:25:5-20
MERGED from [com.google.android.gms:play-services-tasks:9.2.0] /home/brst-pc80/Apps/Cibs-pro/app/build/intermediates/exploded-aar/com.google.android.gms/play-services-tasks/9.2.0/AndroidManifest.xml:5:5-20
MERGED from [com.google.firebase:firebase-messaging:9.2.0] /home/brst-pc80/Apps/Cibs-pro/app/build/intermediates/exploded-aar/com.google.firebase/firebase-messaging/9.2.0/AndroidManifest.xml:20:5-32:19
MERGED from [com.google.firebase:firebase-iid:9.2.0] /home/brst-pc80/Apps/Cibs-pro/app/build/intermediates/exploded-aar/com.google.firebase/firebase-iid/9.2.0/AndroidManifest.xml:30:5-59:19
MERGED from [com.google.firebase:firebase-common:9.2.0] /home/brst-pc80/Apps/Cibs-pro/app/build/intermediates/exploded-aar/com.google.firebase/firebase-common/9.2.0/AndroidManifest.xml:5:5-12:19
MERGED from [com.android.support:design:22.2.0] /home/brst-pc80/Apps/Cibs-pro/app/build/intermediates/exploded-aar/com.android.support/design/22.2.0/AndroidManifest.xml:22:5-20
MERGED from [com.android.support:appcompat-v7:25.0.1] /home/brst-pc80/Apps/Cibs-pro/app/build/intermediates/exploded-aar/com.android.support/appcompat-v7/25.0.1/AndroidManifest.xml:25:5-20
MERGED from [com.android.support:support-vector-drawable:25.0.1] /home/brst-pc80/Apps/Cibs-pro/app/build/intermediates/exploded-aar/com.android.support/support-vector-drawable/25.0.1/AndroidManifest.xml:23:5-20
MERGED from [com.android.support:animated-vector-drawable:25.0.1] /home/brst-pc80/Apps/Cibs-pro/app/build/intermediates/exploded-aar/com.android.support/animated-vector-drawable/25.0.1/AndroidManifest.xml:22:5-20
MERGED from [com.android.support:cardview-v7:25.3.0] /home/brst-pc80/Apps/Cibs-pro/app/build/intermediates/exploded-aar/com.android.support/cardview-v7/25.3.0/AndroidManifest.xml:26:5-20
MERGED from [com.google.firebase:firebase-core:9.2.0] /home/brst-pc80/Apps/Cibs-pro/app/build/intermediates/exploded-aar/com.google.firebase/firebase-core/9.2.0/AndroidManifest.xml:5:5-20
MERGED from [com.google.firebase:firebase-analytics:9.2.0] /home/brst-pc80/Apps/Cibs-pro/app/build/intermediates/exploded-aar/com.google.firebase/firebase-analytics/9.2.0/AndroidManifest.xml:26:5-41:19
MERGED from [com.google.firebase:firebase-analytics-impl:9.2.0] /home/brst-pc80/Apps/Cibs-pro/app/build/intermediates/exploded-aar/com.google.firebase/firebase-analytics-impl/9.2.0/AndroidManifest.xml:26:5-41:19
	android:label
		ADDED from /home/brst-pc80/Apps/Cibs-pro/app/src/main/AndroidManifest.xml:50:9-41
	android:allowBackup
		ADDED from /home/brst-pc80/Apps/Cibs-pro/app/src/main/AndroidManifest.xml:48:9-35
	android:icon
		ADDED from /home/brst-pc80/Apps/Cibs-pro/app/src/main/AndroidManifest.xml:49:9-42
	android:largeHeap
		ADDED from /home/brst-pc80/Apps/Cibs-pro/app/src/main/AndroidManifest.xml:51:9-33
	android:theme
		ADDED from /home/brst-pc80/Apps/Cibs-pro/app/src/main/AndroidManifest.xml:52:9-40
	android:name
		ADDED from /home/brst-pc80/Apps/Cibs-pro/app/src/main/AndroidManifest.xml:47:9-82
activity#com.visionarytechsolutions.cibs1Pro.MainActivity
ADDED from /home/brst-pc80/Apps/Cibs-pro/app/src/main/AndroidManifest.xml:53:9-59:20
	android:screenOrientation
		ADDED from /home/brst-pc80/Apps/Cibs-pro/app/src/main/AndroidManifest.xml:57:13-49
	android:label
		ADDED from /home/brst-pc80/Apps/Cibs-pro/app/src/main/AndroidManifest.xml:58:13-45
	android:excludeFromRecents
		ADDED from /home/brst-pc80/Apps/Cibs-pro/app/src/main/AndroidManifest.xml:56:13-46
	android:configChanges
		ADDED from /home/brst-pc80/Apps/Cibs-pro/app/src/main/AndroidManifest.xml:55:13-68
	android:name
		ADDED from /home/brst-pc80/Apps/Cibs-pro/app/src/main/AndroidManifest.xml:54:13-41
activity#com.visionarytechsolutions.cibs1Pro.FakeCallActivity
ADDED from /home/brst-pc80/Apps/Cibs-pro/app/src/main/AndroidManifest.xml:60:9-64:49
	android:screenOrientation
		ADDED from /home/brst-pc80/Apps/Cibs-pro/app/src/main/AndroidManifest.xml:62:13-49
	android:excludeFromRecents
		ADDED from /home/brst-pc80/Apps/Cibs-pro/app/src/main/AndroidManifest.xml:64:13-46
	android:configChanges
		ADDED from /home/brst-pc80/Apps/Cibs-pro/app/src/main/AndroidManifest.xml:63:13-59
	android:name
		ADDED from /home/brst-pc80/Apps/Cibs-pro/app/src/main/AndroidManifest.xml:61:13-45
receiver#com.visionarytechsolutions.cibs1Pro.receiver.FakeCallReceiver
ADDED from /home/brst-pc80/Apps/Cibs-pro/app/src/main/AndroidManifest.xml:66:9-72:20
	android:excludeFromRecents
		ADDED from /home/brst-pc80/Apps/Cibs-pro/app/src/main/AndroidManifest.xml:68:13-46
	android:name
		ADDED from /home/brst-pc80/Apps/Cibs-pro/app/src/main/AndroidManifest.xml:67:13-54
intent-filter#android.intent.action.BOOT_COMPLETED
ADDED from /home/brst-pc80/Apps/Cibs-pro/app/src/main/AndroidManifest.xml:69:13-71:29
action#android.intent.action.BOOT_COMPLETED
ADDED from /home/brst-pc80/Apps/Cibs-pro/app/src/main/AndroidManifest.xml:70:17-79
	android:name
		ADDED from /home/brst-pc80/Apps/Cibs-pro/app/src/main/AndroidManifest.xml:70:25-76
activity#com.visionarytechsolutions.cibs1Pro.AlertDialogActivity
ADDED from /home/brst-pc80/Apps/Cibs-pro/app/src/main/AndroidManifest.xml:74:9-79:61
	android:screenOrientation
		ADDED from /home/brst-pc80/Apps/Cibs-pro/app/src/main/AndroidManifest.xml:78:13-49
	android:excludeFromRecents
		ADDED from /home/brst-pc80/Apps/Cibs-pro/app/src/main/AndroidManifest.xml:77:13-46
	android:configChanges
		ADDED from /home/brst-pc80/Apps/Cibs-pro/app/src/main/AndroidManifest.xml:76:13-59
	android:theme
		ADDED from /home/brst-pc80/Apps/Cibs-pro/app/src/main/AndroidManifest.xml:79:13-58
	android:name
		ADDED from /home/brst-pc80/Apps/Cibs-pro/app/src/main/AndroidManifest.xml:75:13-48
activity#com.visionarytechsolutions.cibs1Pro.AlertDialogConfirm
ADDED from /home/brst-pc80/Apps/Cibs-pro/app/src/main/AndroidManifest.xml:80:9-85:61
	android:screenOrientation
		ADDED from /home/brst-pc80/Apps/Cibs-pro/app/src/main/AndroidManifest.xml:84:13-49
	android:excludeFromRecents
		ADDED from /home/brst-pc80/Apps/Cibs-pro/app/src/main/AndroidManifest.xml:83:13-46
	android:configChanges
		ADDED from /home/brst-pc80/Apps/Cibs-pro/app/src/main/AndroidManifest.xml:82:13-59
	android:theme
		ADDED from /home/brst-pc80/Apps/Cibs-pro/app/src/main/AndroidManifest.xml:85:13-58
	android:name
		ADDED from /home/brst-pc80/Apps/Cibs-pro/app/src/main/AndroidManifest.xml:81:13-47
activity#com.visionarytechsolutions.cibs1Pro.utils.AbsRuntimeMarshmallowPermission
ADDED from /home/brst-pc80/Apps/Cibs-pro/app/src/main/AndroidManifest.xml:86:9-90:54
	android:screenOrientation
		ADDED from /home/brst-pc80/Apps/Cibs-pro/app/src/main/AndroidManifest.xml:89:13-49
	android:configChanges
		ADDED from /home/brst-pc80/Apps/Cibs-pro/app/src/main/AndroidManifest.xml:88:13-59
	android:theme
		ADDED from /home/brst-pc80/Apps/Cibs-pro/app/src/main/AndroidManifest.xml:90:13-51
	android:name
		ADDED from /home/brst-pc80/Apps/Cibs-pro/app/src/main/AndroidManifest.xml:87:13-101
activity#com.visionarytechsolutions.cibs1Pro.MapActivity
ADDED from /home/brst-pc80/Apps/Cibs-pro/app/src/main/AndroidManifest.xml:92:9-96:49
	android:screenOrientation
		ADDED from /home/brst-pc80/Apps/Cibs-pro/app/src/main/AndroidManifest.xml:94:13-49
	android:excludeFromRecents
		ADDED from /home/brst-pc80/Apps/Cibs-pro/app/src/main/AndroidManifest.xml:96:13-46
	android:configChanges
		ADDED from /home/brst-pc80/Apps/Cibs-pro/app/src/main/AndroidManifest.xml:95:13-59
	android:name
		ADDED from /home/brst-pc80/Apps/Cibs-pro/app/src/main/AndroidManifest.xml:93:13-40
meta-data#com.google.android.geo.API_KEY
ADDED from /home/brst-pc80/Apps/Cibs-pro/app/src/main/AndroidManifest.xml:102:8-104:71
	android:value
		ADDED from /home/brst-pc80/Apps/Cibs-pro/app/src/main/AndroidManifest.xml:104:13-68
	android:name
		ADDED from /home/brst-pc80/Apps/Cibs-pro/app/src/main/AndroidManifest.xml:103:13-58
meta-data#com.google.android.gms.version
ADDED from /home/brst-pc80/Apps/Cibs-pro/app/src/main/AndroidManifest.xml:105:9-107:69
MERGED from [com.google.android.gms:play-services-basement:9.2.0] /home/brst-pc80/Apps/Cibs-pro/app/build/intermediates/exploded-aar/com.google.android.gms/play-services-basement/9.2.0/AndroidManifest.xml:21:9-23:69
	android:value
		ADDED from /home/brst-pc80/Apps/Cibs-pro/app/src/main/AndroidManifest.xml:107:13-66
	android:name
		ADDED from /home/brst-pc80/Apps/Cibs-pro/app/src/main/AndroidManifest.xml:106:13-58
activity#com.visionarytechsolutions.cibs1Pro.WatchVideoOption
ADDED from /home/brst-pc80/Apps/Cibs-pro/app/src/main/AndroidManifest.xml:109:9-120:20
	android:screenOrientation
		ADDED from /home/brst-pc80/Apps/Cibs-pro/app/src/main/AndroidManifest.xml:112:13-49
	android:excludeFromRecents
		ADDED from /home/brst-pc80/Apps/Cibs-pro/app/src/main/AndroidManifest.xml:114:13-46
	android:configChanges
		ADDED from /home/brst-pc80/Apps/Cibs-pro/app/src/main/AndroidManifest.xml:111:13-68
	android:theme
		ADDED from /home/brst-pc80/Apps/Cibs-pro/app/src/main/AndroidManifest.xml:113:13-63
	android:name
		ADDED from /home/brst-pc80/Apps/Cibs-pro/app/src/main/AndroidManifest.xml:110:13-45
intent-filter#android.intent.action.MAIN+android.intent.category.LAUNCHER
ADDED from /home/brst-pc80/Apps/Cibs-pro/app/src/main/AndroidManifest.xml:115:13-119:29
action#android.intent.action.MAIN
ADDED from /home/brst-pc80/Apps/Cibs-pro/app/src/main/AndroidManifest.xml:116:17-69
	android:name
		ADDED from /home/brst-pc80/Apps/Cibs-pro/app/src/main/AndroidManifest.xml:116:25-66
category#android.intent.category.LAUNCHER
ADDED from /home/brst-pc80/Apps/Cibs-pro/app/src/main/AndroidManifest.xml:118:17-77
	android:name
		ADDED from /home/brst-pc80/Apps/Cibs-pro/app/src/main/AndroidManifest.xml:118:27-74
receiver#com.visionarytechsolutions.cibs1Pro.receiver.NotificationAlertReceiver
ADDED from /home/brst-pc80/Apps/Cibs-pro/app/src/main/AndroidManifest.xml:122:9-125:20
	android:excludeFromRecents
		ADDED from /home/brst-pc80/Apps/Cibs-pro/app/src/main/AndroidManifest.xml:124:13-46
	android:name
		ADDED from /home/brst-pc80/Apps/Cibs-pro/app/src/main/AndroidManifest.xml:123:13-63
service#com.visionarytechsolutions.cibs1Pro.service.ShakeService
ADDED from /home/brst-pc80/Apps/Cibs-pro/app/src/main/AndroidManifest.xml:127:9-128:19
	android:name
		ADDED from /home/brst-pc80/Apps/Cibs-pro/app/src/main/AndroidManifest.xml:127:18-54
service#com.visionarytechsolutions.cibs1Pro.service.ThreasholdService
ADDED from /home/brst-pc80/Apps/Cibs-pro/app/src/main/AndroidManifest.xml:129:10-130:19
	android:name
		ADDED from /home/brst-pc80/Apps/Cibs-pro/app/src/main/AndroidManifest.xml:129:19-60
service#com.visionarytechsolutions.cibs1Pro.service.MouthService
ADDED from /home/brst-pc80/Apps/Cibs-pro/app/src/main/AndroidManifest.xml:131:12-132:19
	android:name
		ADDED from /home/brst-pc80/Apps/Cibs-pro/app/src/main/AndroidManifest.xml:131:21-57
service#com.visionarytechsolutions.cibs1Pro.service.BackgroundVideoRecorder
ADDED from /home/brst-pc80/Apps/Cibs-pro/app/src/main/AndroidManifest.xml:133:9-137:19
	android:enabled
		ADDED from /home/brst-pc80/Apps/Cibs-pro/app/src/main/AndroidManifest.xml:134:13-35
	android:process
		ADDED from /home/brst-pc80/Apps/Cibs-pro/app/src/main/AndroidManifest.xml:135:13-42
	android:name
		ADDED from /home/brst-pc80/Apps/Cibs-pro/app/src/main/AndroidManifest.xml:133:18-65
service#com.visionarytechsolutions.cibs1Pro.FirebaseIDService
ADDED from /home/brst-pc80/Apps/Cibs-pro/app/src/main/AndroidManifest.xml:139:9-144:19
	android:name
		ADDED from /home/brst-pc80/Apps/Cibs-pro/app/src/main/AndroidManifest.xml:140:13-81
intent-filter#com.google.firebase.INSTANCE_ID_EVENT
ADDED from /home/brst-pc80/Apps/Cibs-pro/app/src/main/AndroidManifest.xml:141:13-143:29
action#com.google.firebase.INSTANCE_ID_EVENT
ADDED from /home/brst-pc80/Apps/Cibs-pro/app/src/main/AndroidManifest.xml:142:17-79
	android:name
		ADDED from /home/brst-pc80/Apps/Cibs-pro/app/src/main/AndroidManifest.xml:142:25-77
service#com.visionarytechsolutions.cibs1Pro.MyFirebaseMessagingService
ADDED from /home/brst-pc80/Apps/Cibs-pro/app/src/main/AndroidManifest.xml:146:9-151:19
	android:name
		ADDED from /home/brst-pc80/Apps/Cibs-pro/app/src/main/AndroidManifest.xml:147:13-90
intent-filter#com.google.firebase.MESSAGING_EVENT
ADDED from /home/brst-pc80/Apps/Cibs-pro/app/src/main/AndroidManifest.xml:148:13-150:29
action#com.google.firebase.MESSAGING_EVENT
ADDED from /home/brst-pc80/Apps/Cibs-pro/app/src/main/AndroidManifest.xml:149:17-77
	android:name
		ADDED from /home/brst-pc80/Apps/Cibs-pro/app/src/main/AndroidManifest.xml:149:25-75
receiver#com.visionarytechsolutions.cibs1Pro.GCM.GCMBroadcastReceiver
ADDED from /home/brst-pc80/Apps/Cibs-pro/app/src/main/AndroidManifest.xml:154:9-166:20
	android:permission
		ADDED from /home/brst-pc80/Apps/Cibs-pro/app/src/main/AndroidManifest.xml:156:13-73
	android:name
		ADDED from /home/brst-pc80/Apps/Cibs-pro/app/src/main/AndroidManifest.xml:155:13-53
intent-filter#com.google.android.c2dm.intent.RECEIVE+com.google.android.c2dm.intent.REGISTRATION+com.visionarytechsolutions.cibsPro.pushnotification
ADDED from /home/brst-pc80/Apps/Cibs-pro/app/src/main/AndroidManifest.xml:157:13-165:29
action#com.google.android.c2dm.intent.RECEIVE
ADDED from /home/brst-pc80/Apps/Cibs-pro/app/src/main/AndroidManifest.xml:160:17-81
	android:name
		ADDED from /home/brst-pc80/Apps/Cibs-pro/app/src/main/AndroidManifest.xml:160:25-78
action#com.google.android.c2dm.intent.REGISTRATION
ADDED from /home/brst-pc80/Apps/Cibs-pro/app/src/main/AndroidManifest.xml:162:17-86
	android:name
		ADDED from /home/brst-pc80/Apps/Cibs-pro/app/src/main/AndroidManifest.xml:162:25-83
category#com.visionarytechsolutions.cibsPro.pushnotification
ADDED from /home/brst-pc80/Apps/Cibs-pro/app/src/main/AndroidManifest.xml:164:17-96
	android:name
		ADDED from /home/brst-pc80/Apps/Cibs-pro/app/src/main/AndroidManifest.xml:164:27-93
service#com.visionarytechsolutions.cibs1Pro.GCMIntentService
ADDED from /home/brst-pc80/Apps/Cibs-pro/app/src/main/AndroidManifest.xml:168:9-53
	android:name
		ADDED from /home/brst-pc80/Apps/Cibs-pro/app/src/main/AndroidManifest.xml:168:18-50
service#com.visionarytechsolutions.cibs1Pro.service.RollcallRequestService
ADDED from /home/brst-pc80/Apps/Cibs-pro/app/src/main/AndroidManifest.xml:169:9-170:19
	android:name
		ADDED from /home/brst-pc80/Apps/Cibs-pro/app/src/main/AndroidManifest.xml:169:18-64
service#com.visionarytechsolutions.cibs1Pro.service.RollcallAcceptService
ADDED from /home/brst-pc80/Apps/Cibs-pro/app/src/main/AndroidManifest.xml:171:9-172:19
	android:name
		ADDED from /home/brst-pc80/Apps/Cibs-pro/app/src/main/AndroidManifest.xml:171:18-63
service#com.visionarytechsolutions.cibs1Pro.service.RollcallLocationUpdateService
ADDED from /home/brst-pc80/Apps/Cibs-pro/app/src/main/AndroidManifest.xml:173:9-174:19
	android:name
		ADDED from /home/brst-pc80/Apps/Cibs-pro/app/src/main/AndroidManifest.xml:173:18-71
activity#com.visionarytechsolutions.cibs1Pro.WatchVideo
ADDED from /home/brst-pc80/Apps/Cibs-pro/app/src/main/AndroidManifest.xml:182:9-187:20
	android:screenOrientation
		ADDED from /home/brst-pc80/Apps/Cibs-pro/app/src/main/AndroidManifest.xml:184:25-61
	android:label
		ADDED from /home/brst-pc80/Apps/Cibs-pro/app/src/main/AndroidManifest.xml:186:13-63
	android:name
		ADDED from /home/brst-pc80/Apps/Cibs-pro/app/src/main/AndroidManifest.xml:183:13-39
activity#com.visionarytechsolutions.cibs1Pro.EditUserDetail
ADDED from /home/brst-pc80/Apps/Cibs-pro/app/src/main/AndroidManifest.xml:188:9-192:20
	android:screenOrientation
		ADDED from /home/brst-pc80/Apps/Cibs-pro/app/src/main/AndroidManifest.xml:190:13-49
	android:label
		ADDED from /home/brst-pc80/Apps/Cibs-pro/app/src/main/AndroidManifest.xml:191:13-68
	android:name
		ADDED from /home/brst-pc80/Apps/Cibs-pro/app/src/main/AndroidManifest.xml:189:13-43
activity#com.visionarytechsolutions.cibs1Pro.QuickOrCustom
ADDED from /home/brst-pc80/Apps/Cibs-pro/app/src/main/AndroidManifest.xml:193:9-197:20
	android:screenOrientation
		ADDED from /home/brst-pc80/Apps/Cibs-pro/app/src/main/AndroidManifest.xml:195:13-49
	android:label
		ADDED from /home/brst-pc80/Apps/Cibs-pro/app/src/main/AndroidManifest.xml:196:13-67
	android:name
		ADDED from /home/brst-pc80/Apps/Cibs-pro/app/src/main/AndroidManifest.xml:194:13-42
activity#com.visionarytechsolutions.cibs1Pro.QuickSetupOptions
ADDED from /home/brst-pc80/Apps/Cibs-pro/app/src/main/AndroidManifest.xml:198:9-202:20
	android:screenOrientation
		ADDED from /home/brst-pc80/Apps/Cibs-pro/app/src/main/AndroidManifest.xml:200:13-49
	android:label
		ADDED from /home/brst-pc80/Apps/Cibs-pro/app/src/main/AndroidManifest.xml:201:13-71
	android:name
		ADDED from /home/brst-pc80/Apps/Cibs-pro/app/src/main/AndroidManifest.xml:199:13-46
activity#com.visionarytechsolutions.cibs1Pro.FirstActivity
ADDED from /home/brst-pc80/Apps/Cibs-pro/app/src/main/AndroidManifest.xml:203:9-207:20
	android:screenOrientation
		ADDED from /home/brst-pc80/Apps/Cibs-pro/app/src/main/AndroidManifest.xml:205:13-49
	android:label
		ADDED from /home/brst-pc80/Apps/Cibs-pro/app/src/main/AndroidManifest.xml:206:13-71
	android:name
		ADDED from /home/brst-pc80/Apps/Cibs-pro/app/src/main/AndroidManifest.xml:204:13-42
activity#com.visionarytechsolutions.cibs1Pro.WhereIam
ADDED from /home/brst-pc80/Apps/Cibs-pro/app/src/main/AndroidManifest.xml:208:9-212:20
	android:screenOrientation
		ADDED from /home/brst-pc80/Apps/Cibs-pro/app/src/main/AndroidManifest.xml:210:13-49
	android:label
		ADDED from /home/brst-pc80/Apps/Cibs-pro/app/src/main/AndroidManifest.xml:211:13-61
	android:name
		ADDED from /home/brst-pc80/Apps/Cibs-pro/app/src/main/AndroidManifest.xml:209:13-37
activity#com.visionarytechsolutions.cibs1Pro.MapDetails
ADDED from /home/brst-pc80/Apps/Cibs-pro/app/src/main/AndroidManifest.xml:213:9-217:20
	android:screenOrientation
		ADDED from /home/brst-pc80/Apps/Cibs-pro/app/src/main/AndroidManifest.xml:214:13-49
	android:label
		ADDED from /home/brst-pc80/Apps/Cibs-pro/app/src/main/AndroidManifest.xml:216:13-63
	android:name
		ADDED from /home/brst-pc80/Apps/Cibs-pro/app/src/main/AndroidManifest.xml:215:13-39
uses-feature#0x00020000
ADDED from [com.google.android.gms:play-services-maps:9.2.0] /home/brst-pc80/Apps/Cibs-pro/app/build/intermediates/exploded-aar/com.google.android.gms/play-services-maps/9.2.0/AndroidManifest.xml:22:5-24:33
	android:glEsVersion
		ADDED from [com.google.android.gms:play-services-maps:9.2.0] /home/brst-pc80/Apps/Cibs-pro/app/build/intermediates/exploded-aar/com.google.android.gms/play-services-maps/9.2.0/AndroidManifest.xml:23:8-40
	android:required
		ADDED from [com.google.android.gms:play-services-maps:9.2.0] /home/brst-pc80/Apps/Cibs-pro/app/build/intermediates/exploded-aar/com.google.android.gms/play-services-maps/9.2.0/AndroidManifest.xml:24:8-31
activity#com.google.android.gms.common.api.GoogleApiActivity
ADDED from [com.google.android.gms:play-services-base:9.2.0] /home/brst-pc80/Apps/Cibs-pro/app/build/intermediates/exploded-aar/com.google.android.gms/play-services-base/9.2.0/AndroidManifest.xml:20:9-22:45
	android:exported
		ADDED from [com.google.android.gms:play-services-base:9.2.0] /home/brst-pc80/Apps/Cibs-pro/app/build/intermediates/exploded-aar/com.google.android.gms/play-services-base/9.2.0/AndroidManifest.xml:22:19-43
	android:theme
		ADDED from [com.google.android.gms:play-services-base:9.2.0] /home/brst-pc80/Apps/Cibs-pro/app/build/intermediates/exploded-aar/com.google.android.gms/play-services-base/9.2.0/AndroidManifest.xml:21:19-78
	android:name
		ADDED from [com.google.android.gms:play-services-base:9.2.0] /home/brst-pc80/Apps/Cibs-pro/app/build/intermediates/exploded-aar/com.google.android.gms/play-services-base/9.2.0/AndroidManifest.xml:20:19-85
service#com.google.firebase.messaging.FirebaseMessagingService
ADDED from [com.google.firebase:firebase-messaging:9.2.0] /home/brst-pc80/Apps/Cibs-pro/app/build/intermediates/exploded-aar/com.google.firebase/firebase-messaging/9.2.0/AndroidManifest.xml:24:9-30:19
	android:exported
		ADDED from [com.google.firebase:firebase-messaging:9.2.0] /home/brst-pc80/Apps/Cibs-pro/app/build/intermediates/exploded-aar/com.google.firebase/firebase-messaging/9.2.0/AndroidManifest.xml:26:13-36
	android:name
		ADDED from [com.google.firebase:firebase-messaging:9.2.0] /home/brst-pc80/Apps/Cibs-pro/app/build/intermediates/exploded-aar/com.google.firebase/firebase-messaging/9.2.0/AndroidManifest.xml:25:13-82
receiver#com.google.firebase.iid.FirebaseInstanceIdReceiver
ADDED from [com.google.firebase:firebase-iid:9.2.0] /home/brst-pc80/Apps/Cibs-pro/app/build/intermediates/exploded-aar/com.google.firebase/firebase-iid/9.2.0/AndroidManifest.xml:32:9-41:20
	android:exported
		ADDED from [com.google.firebase:firebase-iid:9.2.0] /home/brst-pc80/Apps/Cibs-pro/app/build/intermediates/exploded-aar/com.google.firebase/firebase-iid/9.2.0/AndroidManifest.xml:34:13-36
	android:permission
		ADDED from [com.google.firebase:firebase-iid:9.2.0] /home/brst-pc80/Apps/Cibs-pro/app/build/intermediates/exploded-aar/com.google.firebase/firebase-iid/9.2.0/AndroidManifest.xml:35:13-73
	android:name
		ADDED from [com.google.firebase:firebase-iid:9.2.0] /home/brst-pc80/Apps/Cibs-pro/app/build/intermediates/exploded-aar/com.google.firebase/firebase-iid/9.2.0/AndroidManifest.xml:33:13-78
intent-filter#${applicationId}+com.google.android.c2dm.intent.RECEIVE+com.google.android.c2dm.intent.REGISTRATION
ADDED from [com.google.firebase:firebase-iid:9.2.0] /home/brst-pc80/Apps/Cibs-pro/app/build/intermediates/exploded-aar/com.google.firebase/firebase-iid/9.2.0/AndroidManifest.xml:36:13-40:29
category#${applicationId}
ADDED from [com.google.firebase:firebase-iid:9.2.0] /home/brst-pc80/Apps/Cibs-pro/app/build/intermediates/exploded-aar/com.google.firebase/firebase-iid/9.2.0/AndroidManifest.xml:39:17-61
	android:name
		ADDED from [com.google.firebase:firebase-iid:9.2.0] /home/brst-pc80/Apps/Cibs-pro/app/build/intermediates/exploded-aar/com.google.firebase/firebase-iid/9.2.0/AndroidManifest.xml:39:27-58
receiver#com.google.firebase.iid.FirebaseInstanceIdInternalReceiver
ADDED from [com.google.firebase:firebase-iid:9.2.0] /home/brst-pc80/Apps/Cibs-pro/app/build/intermediates/exploded-aar/com.google.firebase/firebase-iid/9.2.0/AndroidManifest.xml:45:9-47:40
	android:exported
		ADDED from [com.google.firebase:firebase-iid:9.2.0] /home/brst-pc80/Apps/Cibs-pro/app/build/intermediates/exploded-aar/com.google.firebase/firebase-iid/9.2.0/AndroidManifest.xml:47:13-37
	android:name
		ADDED from [com.google.firebase:firebase-iid:9.2.0] /home/brst-pc80/Apps/Cibs-pro/app/build/intermediates/exploded-aar/com.google.firebase/firebase-iid/9.2.0/AndroidManifest.xml:46:13-86
service#com.google.firebase.iid.FirebaseInstanceIdService
ADDED from [com.google.firebase:firebase-iid:9.2.0] /home/brst-pc80/Apps/Cibs-pro/app/build/intermediates/exploded-aar/com.google.firebase/firebase-iid/9.2.0/AndroidManifest.xml:51:9-57:19
	android:exported
		ADDED from [com.google.firebase:firebase-iid:9.2.0] /home/brst-pc80/Apps/Cibs-pro/app/build/intermediates/exploded-aar/com.google.firebase/firebase-iid/9.2.0/AndroidManifest.xml:53:13-36
	android:name
		ADDED from [com.google.firebase:firebase-iid:9.2.0] /home/brst-pc80/Apps/Cibs-pro/app/build/intermediates/exploded-aar/com.google.firebase/firebase-iid/9.2.0/AndroidManifest.xml:52:13-77
provider#com.google.firebase.provider.FirebaseInitProvider
ADDED from [com.google.firebase:firebase-common:9.2.0] /home/brst-pc80/Apps/Cibs-pro/app/build/intermediates/exploded-aar/com.google.firebase/firebase-common/9.2.0/AndroidManifest.xml:7:9-11:39
	android:authorities
		ADDED from [com.google.firebase:firebase-common:9.2.0] /home/brst-pc80/Apps/Cibs-pro/app/build/intermediates/exploded-aar/com.google.firebase/firebase-common/9.2.0/AndroidManifest.xml:8:13-72
	android:exported
		ADDED from [com.google.firebase:firebase-common:9.2.0] /home/brst-pc80/Apps/Cibs-pro/app/build/intermediates/exploded-aar/com.google.firebase/firebase-common/9.2.0/AndroidManifest.xml:10:13-37
	android:initOrder
		ADDED from [com.google.firebase:firebase-common:9.2.0] /home/brst-pc80/Apps/Cibs-pro/app/build/intermediates/exploded-aar/com.google.firebase/firebase-common/9.2.0/AndroidManifest.xml:11:13-36
	android:name
		ADDED from [com.google.firebase:firebase-common:9.2.0] /home/brst-pc80/Apps/Cibs-pro/app/build/intermediates/exploded-aar/com.google.firebase/firebase-common/9.2.0/AndroidManifest.xml:9:13-58
meta-data#android.support.VERSION
ADDED from [com.android.support:cardview-v7:25.3.0] /home/brst-pc80/Apps/Cibs-pro/app/build/intermediates/exploded-aar/com.android.support/cardview-v7/25.3.0/AndroidManifest.xml:22:5-24:34
	android:value
		ADDED from [com.android.support:cardview-v7:25.3.0] /home/brst-pc80/Apps/Cibs-pro/app/build/intermediates/exploded-aar/com.android.support/cardview-v7/25.3.0/AndroidManifest.xml:24:9-31
	android:name
		ADDED from [com.android.support:cardview-v7:25.3.0] /home/brst-pc80/Apps/Cibs-pro/app/build/intermediates/exploded-aar/com.android.support/cardview-v7/25.3.0/AndroidManifest.xml:23:9-47
receiver#com.google.android.gms.measurement.AppMeasurementReceiver
ADDED from [com.google.firebase:firebase-analytics:9.2.0] /home/brst-pc80/Apps/Cibs-pro/app/build/intermediates/exploded-aar/com.google.firebase/firebase-analytics/9.2.0/AndroidManifest.xml:28:7-34:18
MERGED from [com.google.firebase:firebase-analytics-impl:9.2.0] /home/brst-pc80/Apps/Cibs-pro/app/build/intermediates/exploded-aar/com.google.firebase/firebase-analytics-impl/9.2.0/AndroidManifest.xml:28:7-34:18
	android:enabled
		ADDED from [com.google.firebase:firebase-analytics:9.2.0] /home/brst-pc80/Apps/Cibs-pro/app/build/intermediates/exploded-aar/com.google.firebase/firebase-analytics/9.2.0/AndroidManifest.xml:30:11-33
	android:name
		ADDED from [com.google.firebase:firebase-analytics:9.2.0] /home/brst-pc80/Apps/Cibs-pro/app/build/intermediates/exploded-aar/com.google.firebase/firebase-analytics/9.2.0/AndroidManifest.xml:29:11-83
intent-filter#com.google.android.gms.measurement.UPLOAD
ADDED from [com.google.firebase:firebase-analytics:9.2.0] /home/brst-pc80/Apps/Cibs-pro/app/build/intermediates/exploded-aar/com.google.firebase/firebase-analytics/9.2.0/AndroidManifest.xml:31:9-33:25
action#com.google.android.gms.measurement.UPLOAD
ADDED from [com.google.firebase:firebase-analytics:9.2.0] /home/brst-pc80/Apps/Cibs-pro/app/build/intermediates/exploded-aar/com.google.firebase/firebase-analytics/9.2.0/AndroidManifest.xml:32:11-77
	android:name
		ADDED from [com.google.firebase:firebase-analytics:9.2.0] /home/brst-pc80/Apps/Cibs-pro/app/build/intermediates/exploded-aar/com.google.firebase/firebase-analytics/9.2.0/AndroidManifest.xml:32:19-75
service#com.google.android.gms.measurement.AppMeasurementService
ADDED from [com.google.firebase:firebase-analytics:9.2.0] /home/brst-pc80/Apps/Cibs-pro/app/build/intermediates/exploded-aar/com.google.firebase/firebase-analytics/9.2.0/AndroidManifest.xml:36:7-39:37
MERGED from [com.google.firebase:firebase-analytics-impl:9.2.0] /home/brst-pc80/Apps/Cibs-pro/app/build/intermediates/exploded-aar/com.google.firebase/firebase-analytics-impl/9.2.0/AndroidManifest.xml:36:7-39:37
	android:enabled
		ADDED from [com.google.firebase:firebase-analytics:9.2.0] /home/brst-pc80/Apps/Cibs-pro/app/build/intermediates/exploded-aar/com.google.firebase/firebase-analytics/9.2.0/AndroidManifest.xml:38:11-33
	android:exported
		ADDED from [com.google.firebase:firebase-analytics:9.2.0] /home/brst-pc80/Apps/Cibs-pro/app/build/intermediates/exploded-aar/com.google.firebase/firebase-analytics/9.2.0/AndroidManifest.xml:39:11-35
	android:name
		ADDED from [com.google.firebase:firebase-analytics:9.2.0] /home/brst-pc80/Apps/Cibs-pro/app/build/intermediates/exploded-aar/com.google.firebase/firebase-analytics/9.2.0/AndroidManifest.xml:37:11-82
